classify-client.services.mozilla.com:HSTS	0	19250	1694792488967,1,0
normandy.cdn.mozilla.net:HSTS	0	19250	1694792488883,1,0
firefox.settings.services.mozilla.com:HSTS	0	19250	1694792727546,1,0
www.google.com^firstPartyDomain=google-b-1-d.search.suggestions.mozilla:HSTS	0	19250	1694792637826,1,0
incoming.telemetry.mozilla.org:HSTS	0	19250	1694792727836,1,0
contile.services.mozilla.com:HSTS	0	19250	1694792727301,1,0
shavar.services.mozilla.com^firstPartyDomain=safebrowsing.86868755-6b82-4842-b301-72671a0db32e.mozilla:HSTS	0	19250	1694792488693,1,1
www.mozilla.org^partitionKey=%28http%2Cmozilla.org%29:HSTS	0	19250	1694792488436,1,0
spocs.getpocket.com:HSTS	0	19250	1726328488763,1,0
location.services.mozilla.com:HSTS	0	19250	1694792488336,1,1
