classify-client.services.mozilla.com:HSTS	0	19278	1697188415737,1,0
normandy.cdn.mozilla.net:HSTS	0	19278	1697188415640,1,0
firefox.settings.services.mozilla.com:HSTS	0	19278	1697188645057,1,0
www.google.com^firstPartyDomain=google-b-1-d.search.suggestions.mozilla:HSTS	0	19278	1697188600611,1,0
incoming.telemetry.mozilla.org:HSTS	0	19278	1697188645278,1,0
contile.services.mozilla.com:HSTS	0	19278	1697188644850,1,0
shavar.services.mozilla.com^firstPartyDomain=safebrowsing.86868755-6b82-4842-b301-72671a0db32e.mozilla:HSTS	0	19278	1697188645138,1,1
www.mozilla.org^partitionKey=%28http%2Cmozilla.org%29:HSTS	0	19278	1697188415380,1,0
spocs.getpocket.com:HSTS	0	19278	1728724415755,1,0
location.services.mozilla.com:HSTS	0	19278	1697188414951,1,1
