https:redirector.googlevideo.com:443:.:^partitionKey=%28https%2Cea.com%29:3	0	19319	https:redirector.googlevideo.com:443:redirector.googlevideo.com:443::n:1671764064:h3:y:1669171738:n:^partitionKey=%28https%2Cea.com%29:|n:y:
https:apis.google.com:443:.:^partitionKey=%28https%2Cgoogle.com%29:3	0	19319	https:apis.google.com:443:apis.google.com:443::n:1671770618:h3:y:1669171738:n:^partitionKey=%28https%2Cgoogle.com%29:|n:y:
https:adservice.google.com:443:.:^partitionKey=%28https%2Cea.com%29:3	0	19319	https:adservice.google.com:443:adservice.google.com:443::n:1671770677:h3:y:1669171738:n:^partitionKey=%28https%2Cea.com%29:|n:y:
https:jnn-pa.googleapis.com:443:.:^partitionKey=%28https%2Cgoogle.com%29:3	0	19319	https:jnn-pa.googleapis.com:443:jnn-pa.googleapis.com:443::n:1671763749:h3:y:1669171738:n:^partitionKey=%28https%2Cgoogle.com%29:|n:y:
https:encrypted-tbn0.gstatic.com:443:.:^partitionKey=%28https%2Cgoogle.com%29:3	0	19319	https:encrypted-tbn0.gstatic.com:443:encrypted-tbn0.gstatic.com:443::n:1671763748:h3:y:1669171738:n:^partitionKey=%28https%2Cgoogle.com%29:|n:y:
https:cm.g.doubleclick.net:443:.:^partitionKey=%28https%2Cea.com%29:3	0	19319	https:cm.g.doubleclick.net:443:cm.g.doubleclick.net:443::n:1671770454:h3:y:1669178420:n:^partitionKey=%28https%2Cea.com%29:|n:y:
https:fonts.googleapis.com:443:.:^partitionKey=%28https%2Cea.com%29:3	0	19319	https:fonts.googleapis.com:443:fonts.googleapis.com:443::n:1671770622:h3:y:1669178420:n:^partitionKey=%28https%2Cea.com%29:|n:y:
https:id.google.com:443:.:^partitionKey=%28https%2Cgoogle.com%29:3	0	19319	https:id.google.com:443:id.google.com:443::n:1671770618:h3:y:1669178420:n:^partitionKey=%28https%2Cgoogle.com%29:|n:y:
https:stats.g.doubleclick.net:443:.:^partitionKey=%28https%2Cea.com%29:3	1	19321	https:stats.g.doubleclick.net:443:stats.g.doubleclick.net:443::n:1671927300:h3:y:1669171738:n:^partitionKey=%28https%2Cea.com%29:|n:y:
https:static.doubleclick.net:443:.:^partitionKey=%28https%2Cgoogle.com%29:3	0	19319	https:static.doubleclick.net:443:static.doubleclick.net:443::n:1671763749:h3:y:1669171738:n:^partitionKey=%28https%2Cgoogle.com%29:|n:y:
https:www.google.com:443:.:^firstPartyDomain=google-b-d.search.suggestions.mozilla:3	0	19319	https:www.google.com:443:www.google.com:443::n:1671770617:h3:y:1669171738:n:^firstPartyDomain=google-b-d.search.suggestions.mozilla:|n:y:
https:www.google-analytics.com:443:.:^partitionKey=%28https%2Cea.com%29:3	1	19321	https:www.google-analytics.com:443:www.google-analytics.com:443::n:1671927300:h3:y:1669171738:n:^partitionKey=%28https%2Cea.com%29:|n:y:
https:www.googleoptimize.com:443:.:^partitionKey=%28https%2Cea.com%29:3	0	19319	https:www.googleoptimize.com:443:www.googleoptimize.com:443::n:1671770448:h3:y:1669171738:n:^partitionKey=%28https%2Cea.com%29:|n:y:
https:i.ytimg.com:443:.:^partitionKey=%28https%2Cgoogle.com%29:3	0	19319	https:i.ytimg.com:443:i.ytimg.com:443::n:1671763748:h3:y:1669171738:n:^partitionKey=%28https%2Cgoogle.com%29:|n:y:
https:googleads.g.doubleclick.net:443:.:^partitionKey=%28https%2Cgoogle.com%29:3	0	19319	https:googleads.g.doubleclick.net:443:googleads.g.doubleclick.net:443::n:1671770619:h3:y:1669171738:n:^partitionKey=%28https%2Cgoogle.com%29:|n:y:
https:cdnjs.cloudflare.com:443:.:^userContextId=5&partitionKey=%28https%2Cea.com%29:3	0	19321	https:cdnjs.cloudflare.com:443:cdnjs.cloudflare.com:443::n:1669421596:h3:y:1669335191:n:^userContextId=5&partitionKey=%28https%2Cea.com%29:|n:y:
https:adservice.google.com:443:.:^partitionKey=%28https%2Cgoogle.com%29:3	0	19319	https:adservice.google.com:443:adservice.google.com:443::n:1671770619:h3:y:1669171738:n:^partitionKey=%28https%2Cgoogle.com%29:|n:y:
https:www.gstatic.com:443:.:^partitionKey=%28https%2Cgoogle.com%29:3	0	19319	https:www.gstatic.com:443:www.gstatic.com:443::n:1671770618:h3:y:1669171738:n:^partitionKey=%28https%2Cgoogle.com%29:|n:y:
https:yt3.ggpht.com:443:.:^partitionKey=%28https%2Cea.com%29:3	0	19319	https:yt3.ggpht.com:443:yt3.ggpht.com:443::n:1671764064:h3:y:1669171738:n:^partitionKey=%28https%2Cea.com%29:|n:y:
https:play.google.com:443:.:^partitionKey=%28https%2Cgoogle.com%29:3	0	19319	https:play.google.com:443:play.google.com:443::n:1671770618:h3:y:1669171738:n:^partitionKey=%28https%2Cgoogle.com%29:|n:y:
https:www.google.com:443:.:^partitionKey=%28https%2Cea.com%29:3	1	19321	https:www.google.com:443:www.google.com:443::n:1671927301:h3:y:1669171738:n:^partitionKey=%28https%2Cea.com%29:|n:y:
https:connect.facebook.net:443:.:^partitionKey=%28https%2Cea.com%29:3	0	19319	https:connect.facebook.net:443:connect.facebook.net:443::n:1669264847:h3:y:1669171738:n:^partitionKey=%28https%2Cea.com%29:|n:y:
https:www.google.com:443:.:^userContextId=5&partitionKey=%28https%2Cea.com%29:3	0	19319	https:www.google.com:443:www.google.com:443::n:1671770423:h3:y:1669178420:n:^userContextId=5&partitionKey=%28https%2Cea.com%29:|n:y:
https:www.google.com:443:.:^partitionKey=%28https%2Cgoogle.com%29:3	0	19319	https:www.google.com:443:www.google.com:443::n:1671770622:h3:y:1669171738:n:^partitionKey=%28https%2Cgoogle.com%29:|n:y:
https:www.youtube.com:443:.:^partitionKey=%28https%2Cea.com%29:3	0	19319	https:www.youtube.com:443:www.youtube.com:443::n:1671764085:h3:y:1669171738:n:^partitionKey=%28https%2Cea.com%29:|n:y:
https:www.youtube.com:443:.:^partitionKey=%28https%2Cgoogle.com%29:3	0	19319	https:www.youtube.com:443:www.youtube.com:443::n:1671763751:h3:y:1669171738:n:^partitionKey=%28https%2Cgoogle.com%29:|n:y:
https:www.facebook.com:443:.:^partitionKey=%28https%2Cea.com%29:3	0	19319	https:www.facebook.com:443:www.facebook.com:443::n:1669265077:h3:y:1669171738:n:^partitionKey=%28https%2Cea.com%29:|n:y:
https:cdnjs.cloudflare.com:443:.:^partitionKey=%28https%2Cea.com%29:3	0	19319	https:cdnjs.cloudflare.com:443:cdnjs.cloudflare.com:443::n:1669265022:h3:y:1669171738:n:^partitionKey=%28https%2Cea.com%29:|n:y:
https:ajax.googleapis.com:443:.:^userContextId=5&partitionKey=%28https%2Cea.com%29:3	0	19321	https:ajax.googleapis.com:443:ajax.googleapis.com:443::n:1671927196:h3:y:1669335191:n:^userContextId=5&partitionKey=%28https%2Cea.com%29:|n:y:
https:jnn-pa.googleapis.com:443:.:^partitionKey=%28https%2Cea.com%29:3	0	19319	https:jnn-pa.googleapis.com:443:jnn-pa.googleapis.com:443::n:1671764075:h3:y:1669171738:n:^partitionKey=%28https%2Cea.com%29:|n:y:
https:www.googleoptimize.com:443:.:^userContextId=5&partitionKey=%28https%2Cea.com%29:3	1	19321	https:www.googleoptimize.com:443:www.googleoptimize.com:443::n:1671927197:h3:y:1669171738:n:^userContextId=5&partitionKey=%28https%2Cea.com%29:|n:y:
https:analytics.google.com:443:.:^partitionKey=%28https%2Cea.com%29:3	0	19319	https:analytics.google.com:443:analytics.google.com:443::n:1671770681:h3:y:1669171738:n:^partitionKey=%28https%2Cea.com%29:|n:y:
https:googleads.g.doubleclick.net:443:.:^partitionKey=%28https%2Cea.com%29:3	0	19319	https:googleads.g.doubleclick.net:443:googleads.g.doubleclick.net:443::n:1671764075:h3:y:1669171738:n:^partitionKey=%28https%2Cea.com%29:|n:y:
https:stats.g.doubleclick.net:443:.:^userContextId=5&partitionKey=%28https%2Cea.com%29:3	0	19319	https:stats.g.doubleclick.net:443:stats.g.doubleclick.net:443::n:1671770423:h3:y:1669178420:n:^userContextId=5&partitionKey=%28https%2Cea.com%29:|n:y:
https:www.googletagmanager.com:443:.:^userContextId=5&partitionKey=%28https%2Cea.com%29:3	1	19321	https:www.googletagmanager.com:443:www.googletagmanager.com:443::n:1671927197:h3:y:1669171738:n:^userContextId=5&partitionKey=%28https%2Cea.com%29:|n:y:
https:ajax.googleapis.com:443:.:^partitionKey=%28https%2Cea.com%29:3	0	19319	https:ajax.googleapis.com:443:ajax.googleapis.com:443::n:1671770525:h3:y:1669178420:n:^partitionKey=%28https%2Cea.com%29:|n:y:
https:www.googletagmanager.com:443:.:^partitionKey=%28https%2Cea.com%29:3	0	19319	https:www.googletagmanager.com:443:www.googletagmanager.com:443::n:1671770622:h3:y:1669171738:n:^partitionKey=%28https%2Cea.com%29:|n:y:
https:fonts.gstatic.com:443:.:^partitionKey=%28https%2Cgoogle.com%29:3	0	19319	https:fonts.gstatic.com:443:fonts.gstatic.com:443::n:1671770617:h3:y:1669171738:n:^partitionKey=%28https%2Cgoogle.com%29:|n:y:
https:static.doubleclick.net:443:.:^partitionKey=%28https%2Cea.com%29:3	0	19319	https:static.doubleclick.net:443:static.doubleclick.net:443::n:1671764063:h3:y:1669171738:n:^partitionKey=%28https%2Cea.com%29:|n:y:
https:3879194.fls.doubleclick.net:443:.:^partitionKey=%28https%2Cea.com%29:3	0	19319	https:3879194.fls.doubleclick.net:443:3879194.fls.doubleclick.net:443::n:1671770677:h3:y:1669171738:n:^partitionKey=%28https%2Cea.com%29:|n:y:
https:www.google-analytics.com:443:.:^userContextId=5&partitionKey=%28https%2Cea.com%29:3	1	19321	https:www.google-analytics.com:443:www.google-analytics.com:443::n:1671927197:h3:y:1669171738:n:^userContextId=5&partitionKey=%28https%2Cea.com%29:|n:y:
https:i.ytimg.com:443:.:^partitionKey=%28https%2Cea.com%29:3	0	19319	https:i.ytimg.com:443:i.ytimg.com:443::n:1671764075:h3:y:1669171738:n:^partitionKey=%28https%2Cea.com%29:|n:y:
https:fonts.gstatic.com:443:.:^partitionKey=%28https%2Cea.com%29:3	0	19319	https:fonts.gstatic.com:443:fonts.gstatic.com:443::n:1671770622:h3:y:1669171738:n:^partitionKey=%28https%2Cea.com%29:|n:y:
