https:fonts.gstatic.com:443:.:^partitionKey=%28https%2Cqemu.org%29:3	0	19334	https:fonts.gstatic.com:443:fonts.gstatic.com:443::n:1673131393:h3:y:1670538286:n:^partitionKey=%28https%2Cqemu.org%29:|n:y:
https:maxcdn.bootstrapcdn.com:443:.:^partitionKey=%28https%2Cqemu.org%29:3	0	19334	https:maxcdn.bootstrapcdn.com:443:maxcdn.bootstrapcdn.com:443::n:1670625792:h3:y:1670538286:n:^partitionKey=%28https%2Cqemu.org%29:|n:y:
https:cdn.jsdelivr.net:443:.::3	0	19334	https:cdn.jsdelivr.net:443:cdn.jsdelivr.net:443::n:1670627120:h3:y:1670538286:n::|n:y:
https:www.gstatic.com:443:.:^partitionKey=%28https%2Cgitlab.com%29:3	0	19334	https:www.gstatic.com:443:www.gstatic.com:443::n:1673133291:h3:y:1670538286:n:^partitionKey=%28https%2Cgitlab.com%29:|n:y:
https:www.gstatic.com:443:.::3	0	19334	https:www.gstatic.com:443:www.gstatic.com:443::n:1673132302:h3:y:1670538286:n::|n:y:
https:fonts.googleapis.com:443:.:^partitionKey=%28https%2Cqemu.org%29:3	0	19334	https:fonts.googleapis.com:443:fonts.googleapis.com:443::n:1673131392:h3:y:1670538286:n:^partitionKey=%28https%2Cqemu.org%29:|n:y:
https:maxcdn.bootstrapcdn.com:443:.::3	0	19334	https:maxcdn.bootstrapcdn.com:443:maxcdn.bootstrapcdn.com:443::n:1670625792:h3:y:1670538286:n::|n:y:
https:fonts.gstatic.com:443:.:^partitionKey=%28https%2Cgitlab.com%29:3	0	19334	https:fonts.gstatic.com:443:fonts.gstatic.com:443::n:1673133298:h3:y:1670538286:n:^partitionKey=%28https%2Cgitlab.com%29:|n:y:
https:outlook.live.com:443:.:^partitionKey=%28https%2Clive.com%29:3	0	19334	https:outlook.live.com:443:outlook.live.com:443::n:1670628081:h3:y:1670538286:n:^partitionKey=%28https%2Clive.com%29:|n:y:
https:ublockorigin.pages.dev:443:.::3	0	19334	https:ublockorigin.pages.dev:443:ublockorigin.pages.dev:443::n:1670624912:h3:y:1670538286:n::|n:y:
https:www.google.com:443:.:^partitionKey=%28https%2Cgitlab.com%29:3	0	19334	https:www.google.com:443:www.google.com:443::n:1673133313:h3:y:1670538286:n:^partitionKey=%28https%2Cgitlab.com%29:|n:y:
https:attachment.outlook.live.net:443:.:^partitionKey=%28https%2Clive.com%29:3	0	19334	https:attachment.outlook.live.net:443:attachment.outlook.live.net:443::n:1670627726:h3:y:1670538286:n:^partitionKey=%28https%2Clive.com%29:|n:y:
https:static.xx.fbcdn.net:443:.:^partitionKey=%28https%2Clive.com%29:3	0	19334	https:static.xx.fbcdn.net:443:static.xx.fbcdn.net:443::n:1670627762:h3:y:1670538286:n:^partitionKey=%28https%2Clive.com%29:|n:y:
